{
  "openapi": "3.0.3",
  "info": {
    "title": "Market Place API - OpenAPI 3.0",
    "description": "Platinum Challenge",
    "version": "1"
  },
  "tags": [
    {
      "name": "user register"
    },
    {
      "name": "user order"
    },
    {
      "name": "admin items"
    }
  ],
  "paths": {
    "/user/register": {
      "post": {
        "tags": ["user register"],
        "summary": "create new user",
        "description": "add new user to database",
        "requestBody": {
          "required": true,
          "content": {
            "application/json": {
              "schema": {
                "type": "object",
                "properties": {
                  "name": {
                    "type": "string"
                  },
                  "email": {
                    "type": "string"
                  },
                  "password": {
                    "type": "string"
                  },
                  "role": {
                    "type": "string"
                  }
                }
              }
            }
          }
        },
        "responses": {
          "200": {
            "description": "successfully add order",
            "content": {
              "application/json": {
                "schema": {
                  "type": "object",
                  "properties": {
                    "status": {
                      "type": "string"
                    },
                    "message": {
                      "type": "string"
                    }
                  }
                },
                "example": {
                  "status": "success",
                  "message": "Success user has been registered"
                }
              }
            }
          },
          "400": {
            "description": "Error Client",
            "content": {
              "application/json": {
                "schema": {
                  "type": "object",
                  "properties": {
                    "status": {
                      "type": "string"
                    },
                    "message": {
                      "type": "string"
                    }
                  }
                },
                "examples": {
                  "FormValidationError": {
                    "value": {
                      "status": "success",
                      "message": "Success user has been registered"
                    }
                  },
                  "DataValidationError": {
                    "value": {
                      "status": "success",
                      "message": "Success user has been registered"
                    }
                  }
                }
              }
            }
          },
          "500": {
            "description": "Error Server",
            "content": {
              "application/json": {
                "schema": {
                  "type": "object",
                  "properties": {
                    "status": {
                      "type": "string"
                    },
                    "message": {
                      "type": "string"
                    }
                  }
                },
                "example": {
                  "status": "error",
                  "message": "Internal server Error"
                }
              }
            }
          }
        }
      }
    },
    "/users/order/": {
      "post": {
        "tags": ["user order"],
        "description": "item data",
        "requestBody": {
          "required": true,
          "description": "you can add one or more information at one request",
          "content": {
            "application/json": {
              "schema": {
                "type": "object",
                "properties": {
                  "id": {
                    "type": "number"
                  },
                  "user_id": {
                    "type": "number"
                  },
                  "name": {
                    "type": "string"
                  },
                  "status": {
                    "type": "string"
                  },
                  "total": {
                    "type": "number"
                  },
                  "created_at": {
                    "type": "string"
                  }
                }
              }
            }
          }
        },
        "responses": {
          "200": {
            "description": "successfully add order",
            "content": {
              "application/json": {
                "schema": {
                  "type": "object",
                  "properties": {
                    "status": {
                      "type": "string"
                    },
                    "message": {
                      "type": "string"
                    }
                  }
                },
                "example": {
                  "status": "success",
                  "message": "data order with much add"
                }
              }
            }
          }
        },
        "responses": {
          "500": {
            "description": "Error Server",
            "content": {
              "application/json": {
                "schema": {
                  "type": "object",
                  "properties": {
                    "status": {
                      "type": "string"
                    },
                    "message": {
                      "type": "string"
                    }
                  }
                },
                "example": {
                  "status": "error",
                  "message": "Internal server Error"
                }
              }
            }
          }
        }
      }
    },
    "/admin/items": {
      "post": {
        "tags": ["admin items"],
        "description": "item data",
        "requestBody": {
          "required": true,
          "description": "you can add one or more information at one request",
          "content": {
            "application/json": {
              "schema": {
                "type": "object",
                "properties": {
                  "id": {
                    "type": "number"
                  },
                  "name": {
                    "type": "string"
                  },
                  "category": {
                    "type": "string"
                  },
                  "price": {
                    "type": "number"
                  },
                  "stock": {
                    "type": "number"
                  }
                }
              }
            }
          }
        },
        "responses": {
          "200": {
            "description": "successfully add item",
            "content": {
              "application/json": {
                "schema": {
                  "type": "object",
                  "properties": {
                    "status": {
                      "type": "string"
                    },
                    "message": {
                      "type": "string"
                    }
                  }
                },
                "example": {
                  "status": "success",
                  "message": "data order only with item"
                }
              }
            }
          }
        },
        "responses": {
          "500": {
            "description": "Error Server",
            "content": {
              "application/json": {
                "schema": {
                  "type": "object",
                  "properties": {
                    "status": {
                      "type": "string"
                    },
                    "message": {
                      "type": "string"
                    }
                  }
                },
                "example": {
                  "status": "error",
                  "message": "Internal server Error"
                }
              }
            }
          }
        }
      }
    }
  }
}
